{
    "$schema": "https://themost-framework.github.io/themost/models/2018/2/schema.json",
    "@id": "https://universis.io/schemas/DepartmentDocumentNumberSeries",
    "inherits": "DocumentNumberSeries",
    "title": "Document numbering configuration for institutes",
    "name": "InstituteDocumentNumberSeries",
    "version": "1.2",
    "classPath": "./models/InstituteDocumentNumberSeries",
    "fields": [
        {
            "name": "institute",
            "title": "Institute",
            "type": "Institute",
            "nullable": false,
            "editable": false,
            "value": "javascript:return this.model.context.model('Institute').where('local').equal(true).select('id').silent().value()"
        }
    ],
    "privileges": [
        {
            "mask": 15,
            "type": "global"
        },
        {
            "mask": 15,
            "type": "global",
            "account": "Administrators"
        },
        {
            "mask": 15,
            "type": "item"
        }
    ]
}